VHDL/Boolean Function/out4.vcd
$date
  Thu Aug 08 15:55:07 2024
$end
$version
  GHDL v0
$end
$timescale
  1 fs
$end
$var reg 1 ! a2 $end
$var reg 1 " b2 $end
$var reg 1 # c2 $end
$var reg 1 $ d2 $end
$scope module bool_label $end
$var reg 1 % a $end
$var reg 1 & b $end
$var reg 1 ' c $end
$var reg 1 ( d $end
$upscope $end
$enddefinitions $end
#0
U!
U"
U#
U$
U%
U&
U'
U(
#10000000
0!
0"
0#
0$
0%
0&
0'
0(
#20000000
1"
1&
#30000000
0"
1#
0&
1'
#40000000
1"
1$
1&
1(
#50000000
1!
0"
0#
1%
0&
0'
#60000000
1"
1&
#70000000
0"
1#
0&
1'
#80000000
1"
1&
