out/production/Class Work/VHDL/14-11-24/SR-flip-flop/output.vcd
$date
  Thu Nov 21 14:17:45 2024
$end
$version
  GHDL v0
$end
$timescale
  1 fs
$end
$var reg 1 ! s $end
$var reg 1 " r $end
$var reg 1 # clk $end
$var reg 1 $ q $end
$var reg 1 % qn $end
$scope module uut $end
$var reg 1 & s $end
$var reg 1 ' r $end
$var reg 1 ( clk $end
$var reg 1 ) q $end
$var reg 1 * qn $end
$var reg 1 + nand1_out $end
$var reg 1 , nand2_out $end
$var reg 1 - nand3_out $end
$var reg 1 . nand4_out $end
$scope module nand1 $end
$var reg 1 / a $end
$var reg 1 0 b $end
$var reg 1 1 y $end
$upscope $end
$scope module nand2 $end
$var reg 1 2 a $end
$var reg 1 3 b $end
$var reg 1 4 y $end
$upscope $end
$scope module nand3 $end
$var reg 1 5 a $end
$var reg 1 6 b $end
$var reg 1 7 y $end
$upscope $end
$scope module nand4 $end
$var reg 1 8 a $end
$var reg 1 9 b $end
$var reg 1 : y $end
$upscope $end
$upscope $end
$enddefinitions $end
#0
0!
0"
0#
1$
1%
0&
0'
0(
1)
1*
1+
1,
1-
1.
0/
10
11
02
13
14
15
06
17
18
09
1:
#10000000
1#
0$
0%
1(
0)
0*
0-
0.
16
07
19
0:
#20000000
1!
0#
1$
1%
1&
0(
1)
1*
0+
1-
1.
1/
01
03
05
06
17
09
1:
#30000000
1#
0%
1(
0*
0.
16
19
0:
#40000000
0!
1"
0#
1%
0&
1'
0(
1*
1+
0,
1.
0/
00
11
12
13
04
15
06
08
09
1:
#50000000
1#
0$
1(
0)
0-
16
07
19
#60000000
1!
0#
1$
1&
0(
1)
1-
1/
06
17
09
#70000000
1#
0$
1(
0)
0-
16
07
19
#80000000
0!
0"
0#
1$
0&
0'
0(
1)
1,
1-
0/
10
02
14
06
17
18
09
#90000000
1#
0$
0%
1(
0)
0*
0-
0.
16
07
19
0:
#100000000
0#
1$
1%
0(
1)
1*
1-
1.
06
17
09
1:
