out/production/Class Work/VHDL/14-11-24/D-flip-flop/output.vcd
$date
  Thu Nov 21 14:20:01 2024
$end
$version
  GHDL v0
$end
$timescale
  1 fs
$end
$var reg 1 ! d $end
$var reg 1 " clk $end
$var reg 1 # q $end
$var reg 1 $ qn $end
$scope module uut $end
$var reg 1 % d $end
$var reg 1 & clk $end
$var reg 1 ' q $end
$var reg 1 ( qn $end
$var reg 1 ) nand1_out $end
$var reg 1 * nand2_out $end
$var reg 1 + nand3_out $end
$var reg 1 , nand4_out $end
$var reg 1 - nand5_out $end
$var reg 1 . nand6_out $end
$scope module nand1 $end
$var reg 1 / a $end
$var reg 1 0 b $end
$var reg 1 1 y $end
$upscope $end
$scope module nand2 $end
$var reg 1 2 a $end
$var reg 1 3 b $end
$var reg 1 4 y $end
$upscope $end
$scope module nand3 $end
$var reg 1 5 a $end
$var reg 1 6 b $end
$var reg 1 7 c $end
$var reg 1 8 y $end
$upscope $end
$scope module nand4 $end
$var reg 1 9 a $end
$var reg 1 : b $end
$var reg 1 ; y $end
$upscope $end
$scope module nand5 $end
$var reg 1 < a $end
$var reg 1 = b $end
$var reg 1 > y $end
$upscope $end
$scope module nand6 $end
$var reg 1 ? a $end
$var reg 1 @ b $end
$var reg 1 A y $end
$upscope $end
$upscope $end
$enddefinitions $end
#0
0!
0"
U#
U$
0%
0&
U'
U(
0)
1*
1+
1,
U-
U.
1/
10
01
02
03
14
15
06
17
18
19
0:
1;
1<
U=
U>
1?
U@
UA
#10000000
1"
0#
1$
1&
0'
1(
0+
0-
1.
13
16
08
09
1=
0>
0?
0@
1A
#20000000
1!
0"
1%
0&
1)
1+
0,
0/
11
12
03
06
07
18
19
1:
0;
1?
#30000000
1"
1#
0$
1&
1'
0(
0*
1-
0.
00
13
04
05
16
0<
0=
1>
1@
0A
#40000000
0!
0"
0%
0&
0)
1*
1,
1/
10
01
02
03
14
15
06
17
0:
1;
1<
#50000000
1"
0#
1$
1&
0'
1(
0+
0-
1.
13
16
08
09
1=
0>
0?
0@
1A
#60000000
1!
0"
1%
0&
1)
1+
0,
0/
11
12
03
06
07
18
19
1:
0;
1?
#70000000
1"
1#
0$
1&
1'
0(
0*
1-
0.
00
13
04
05
16
0<
0=
1>
1@
0A
#80000000
0"
0&
1*
10
03
14
15
06
1<
#90000000
1"
1&
0*
00
13
04
05
16
0<
#100000000
0"
0&
1*
10
03
14
15
06
1<
