VHDL/22-08-24/FourBitBinaryAdder/output.vcd
$date
  Fri Oct 04 19:15:00 2024
$end
$version
  GHDL v0
$end
$timescale
  1 fs
$end
$var reg 4 ! a[3:0] $end
$var reg 4 " b[3:0] $end
$var reg 1 # cin $end
$var reg 4 $ sum[3:0] $end
$var reg 1 % cout $end
$scope module uut $end
$var reg 4 & a[3:0] $end
$var reg 4 ' b[3:0] $end
$var reg 1 ( cin $end
$var reg 4 ) sum[3:0] $end
$var reg 1 * cout $end
$var reg 4 + carry[3:0] $end
$scope module fa0 $end
$var reg 1 , a $end
$var reg 1 - b $end
$var reg 1 . cin $end
$var reg 1 / carry $end
$var reg 1 0 sum $end
$var reg 1 1 sum1 $end
$var reg 1 2 carry1 $end
$var reg 1 3 carry2 $end
$scope module ha1 $end
$var reg 1 4 a $end
$var reg 1 5 b $end
$var reg 1 6 carry $end
$var reg 1 7 sum $end
$upscope $end
$scope module ha2 $end
$var reg 1 8 a $end
$var reg 1 9 b $end
$var reg 1 : carry $end
$var reg 1 ; sum $end
$upscope $end
$upscope $end
$scope module fa1 $end
$var reg 1 < a $end
$var reg 1 = b $end
$var reg 1 > cin $end
$var reg 1 ? carry $end
$var reg 1 @ sum $end
$var reg 1 A sum1 $end
$var reg 1 B carry1 $end
$var reg 1 C carry2 $end
$scope module ha1 $end
$var reg 1 D a $end
$var reg 1 E b $end
$var reg 1 F carry $end
$var reg 1 G sum $end
$upscope $end
$scope module ha2 $end
$var reg 1 H a $end
$var reg 1 I b $end
$var reg 1 J carry $end
$var reg 1 K sum $end
$upscope $end
$upscope $end
$scope module fa2 $end
$var reg 1 L a $end
$var reg 1 M b $end
$var reg 1 N cin $end
$var reg 1 O carry $end
$var reg 1 P sum $end
$var reg 1 Q sum1 $end
$var reg 1 R carry1 $end
$var reg 1 S carry2 $end
$scope module ha1 $end
$var reg 1 T a $end
$var reg 1 U b $end
$var reg 1 V carry $end
$var reg 1 W sum $end
$upscope $end
$scope module ha2 $end
$var reg 1 X a $end
$var reg 1 Y b $end
$var reg 1 Z carry $end
$var reg 1 [ sum $end
$upscope $end
$upscope $end
$scope module fa3 $end
$var reg 1 \ a $end
$var reg 1 ] b $end
$var reg 1 ^ cin $end
$var reg 1 _ carry $end
$var reg 1 ` sum $end
$var reg 1 a sum1 $end
$var reg 1 b carry1 $end
$var reg 1 c carry2 $end
$scope module ha1 $end
$var reg 1 d a $end
$var reg 1 e b $end
$var reg 1 f carry $end
$var reg 1 g sum $end
$upscope $end
$scope module ha2 $end
$var reg 1 h a $end
$var reg 1 i b $end
$var reg 1 j carry $end
$var reg 1 k sum $end
$upscope $end
$upscope $end
$upscope $end
$enddefinitions $end
#0
b0000 !
b0000 "
0#
b0000 $
0%
b0000 &
b0000 '
0(
b0000 )
0*
bU000 +
0,
0-
0.
0/
00
01
02
03
04
05
06
07
08
09
0:
0;
0<
0=
0>
0?
0@
0A
0B
0C
0D
0E
0F
0G
0H
0I
0J
0K
0L
0M
0N
0O
0P
0Q
0R
0S
0T
0U
0V
0W
0X
0Y
0Z
0[
0\
0]
0^
0_
0`
0a
0b
0c
0d
0e
0f
0g
0h
0i
0j
0k
#10000000
b0001 !
b0011 "
b0100 $
b0001 &
b0011 '
b0100 )
bU011 +
1,
1-
1/
12
14
15
16
1=
1>
1?
0@
1A
1C
1E
1G
1H
1I
1J
0K
1N
1P
1Y
1[
#20000000
b0011 !
b0100 "
b0111 $
b0011 &
b0100 '
b0111 )
bU000 +
0-
0/
10
11
02
05
06
17
18
1;
1<
0=
0>
0?
1@
0C
1D
0E
0I
0J
1K
1M
0N
0O
1P
1Q
0S
1U
1W
1X
0Y
0Z
1[
0^
0`
0i
0k
#30000000
b0010 !
b0101 "
b0010 &
b0101 '
0,
1-
04
15
#40000000
b0001 !
b0010 "
b0011 $
b0001 &
b0010 '
b0011 )
1,
0-
14
05
0<
1=
0D
1E
0M
0P
0Q
0U
0W
0X
0[
#50000000
b0100 !
b0101 "
b1001 $
b0100 &
b0101 '
b1001 )
bU100 +
0,
1-
04
15
0=
0@
0A
0E
0G
0H
0K
1L
1M
1O
1R
1T
1U
1V
1^
1`
1i
1k
#60000000
b0111 !
b0011 "
1#
b1011 $
b0111 &
b0011 '
1(
b1011 )
bU111 +
1,
1.
1/
10
01
12
03
14
16
07
08
19
0:
1;
1<
1=
1>
1?
1@
1B
1D
1E
1F
1I
1K
0M
1N
1O
0P
1Q
0R
1S
0U
0V
1W
1X
1Y
1Z
0[
1^
1`
1i
1k
#70000000
b1111 !
b1111 "
b1111 $
1%
b1111 &
b1111 '
b1111 )
1*
1M
1P
0Q
1R
0S
1U
1V
0W
0X
0Z
1[
1\
1]
1_
1b
1d
1e
1f
