VHDL/22-08-24/FourBitBinaryAdder/output.vcd
$date
  Thu Aug 22 16:23:27 2024
$end
$version
  GHDL v0
$end
$timescale
  1 fs
$end
$var reg 4 ! a[3:0] $end
$var reg 4 " b[3:0] $end
$var reg 1 # cin $end
$var reg 4 $ sum[3:0] $end
$var reg 1 % cout $end
$scope module uut $end
$var reg 4 & a[3:0] $end
$var reg 4 ' b[3:0] $end
$var reg 1 ( cin $end
$var reg 4 ) sum[3:0] $end
$var reg 1 * cout $end
$var reg 4 + carry[3:0] $end
$scope module fa0 $end
$var reg 1 , a $end
$var reg 1 - b $end
$var reg 1 . cin $end
$var reg 1 / carry $end
$var reg 1 0 sum $end
$var reg 1 1 sum1 $end
$var reg 1 2 carry1 $end
$var reg 1 3 carry2 $end
$scope module ha1 $end
$upscope $end
$scope module ha2 $end
$upscope $end
$upscope $end
$scope module fa1 $end
$var reg 1 4 a $end
$var reg 1 5 b $end
$var reg 1 6 cin $end
$var reg 1 7 carry $end
$var reg 1 8 sum $end
$var reg 1 9 sum1 $end
$var reg 1 : carry1 $end
$var reg 1 ; carry2 $end
$scope module ha1 $end
$upscope $end
$scope module ha2 $end
$upscope $end
$upscope $end
$scope module fa2 $end
$var reg 1 < a $end
$var reg 1 = b $end
$var reg 1 > cin $end
$var reg 1 ? carry $end
$var reg 1 @ sum $end
$var reg 1 A sum1 $end
$var reg 1 B carry1 $end
$var reg 1 C carry2 $end
$scope module ha1 $end
$upscope $end
$scope module ha2 $end
$upscope $end
$upscope $end
$scope module fa3 $end
$var reg 1 D a $end
$var reg 1 E b $end
$var reg 1 F cin $end
$var reg 1 G carry $end
$var reg 1 H sum $end
$var reg 1 I sum1 $end
$var reg 1 J carry1 $end
$var reg 1 K carry2 $end
$scope module ha1 $end
$upscope $end
$scope module ha2 $end
$upscope $end
$upscope $end
$upscope $end
$enddefinitions $end
#0
b0000 !
b0000 "
0#
bUUUU $
U%
b0000 &
b0000 '
0(
bUUUU )
U*
bUUUU +
0,
0-
0.
U/
U0
U1
U2
U3
04
05
U6
U7
U8
U9
U:
U;
0<
0=
U>
U?
U@
UA
UB
UC
0D
0E
UF
UG
UH
UI
UJ
UK
#10000000
b0001 !
b0001 "
b0001 &
b0001 '
1,
1-
#20000000
b0011 !
b0011 "
b0011 &
b0011 '
14
15
#30000000
b0101 !
b0101 "
b0101 &
b0101 '
04
05
1<
1=
#40000000
b1001 !
b1001 "
b1001 &
b1001 '
0<
0=
1D
1E
#50000000
b1111 !
b1111 "
b1111 &
b1111 '
14
15
1<
1=
#60000000
b0000 !
b0000 "
1#
b0000 &
b0000 '
1(
0,
0-
1.
04
05
0<
0=
0D
0E
#70000000
b1111 !
b1111 "
b1111 &
b1111 '
1,
1-
14
15
1<
1=
1D
1E
